#FIG 3.2  Produced by xfig version 3.2.5b
Landscape
Center
Metric
A4      
100.00
Single
-2
1200 2
0 32 #aaaaaa
0 33 #555555
0 34 #333333
1 3 0 1 0 20 49 -1 20 0.000 1 0.0000 6795 5670 90 90 6795 5670 6885 5670
1 3 0 1 0 13 49 -1 20 0.000 1 0.0000 6795 5175 90 90 6795 5175 6885 5175
2 2 0 1 0 7 50 -1 -1 0.000 0 0 -1 0 0 5
	 5355 5085 5490 5085 5490 5265 5355 5265 5355 5085
2 2 0 1 0 7 50 -1 -1 0.000 0 0 -1 0 0 5
	 5355 5535 5490 5535 5490 5715 5355 5715 5355 5535
2 2 0 0 0 33 51 -1 20 0.000 0 0 -1 0 0 5
	 5355 5535 5490 5535 5490 5625 5355 5625 5355 5535
2 2 0 0 0 33 51 -1 20 0.000 0 0 -1 0 0 5
	 5355 5085 5490 5085 5490 5220 5355 5220 5355 5085
2 2 0 1 0 0 50 -1 20 0.000 0 0 -1 0 0 5
	 4995 5850 5760 5850 5760 5895 4995 5895 4995 5850
2 1 0 1 0 33 51 -1 20 0.000 0 0 -1 0 0 4
	 6975 4770 5760 4860 5760 5985 6975 6075
2 1 0 1 0 34 50 -1 20 0.000 0 0 -1 0 0 4
	 6975 4860 5805 4905 5805 5940 6975 5985
2 1 0 1 0 32 53 -1 20 0.000 0 0 -1 0 0 5
	 4950 4950 4950 5850 5760 5850 5760 4950 4950 4950
2 2 0 0 0 0 50 -1 20 0.000 0 0 -1 0 0 5
	 5760 4905 5805 4905 5805 5940 5760 5940 5760 4905
2 1 0 1 7 34 48 -1 -1 0.000 0 0 -1 0 0 2
	 4950 4968 5760 4968
2 1 0 1 33 26 48 -1 -1 0.000 0 0 -1 0 0 2
	 4950 5832 5760 5832
2 1 0 1 7 34 48 -1 -1 0.000 0 0 -1 0 0 2
	 5799 4885 6972 4839
2 1 0 1 0 0 50 -1 20 0.000 0 0 -1 0 0 4
	 5805 5985 5805 6030 6975 6120 6975 6075
2 2 0 0 0 7 50 -1 -1 0.000 0 0 -1 0 0 5
	 4950 4410 6975 4410 6975 6435 4950 6435 4950 4410
4 0 4 49 -1 22 15 0.0000 4 180 465 6210 5760 ALM\001
4 0 7 49 -1 22 15 0.0000 4 180 435 6210 5265 REC\001
